-------------------------------------------------------------------------------
Test set: com.example.PdbTutorial03ApplicationTests
-------------------------------------------------------------------------------
Tests run: 1, Failures: 0, Errors: 0, Skipped: 0, Time elapsed: 10.307 sec - in com.example.PdbTutorial03ApplicationTests
